LogisticRegression--CountVectorizer-Unigrams,0.565499006,0.579529196,0.572099984,0.567021372
RandomForest--CountVectorizer-Unigrams,0.563274416,0.516746401,0.530865946,0.554521372
Gaussian Naive-Bayes--CountVectorizer-Unigrams,0.60292455,0.180747563,0.275298157,0.532323616
LogisticRegression--CountVectorizer-bigrams,0.560197501,0.580939819,0.569768357,0.562535769
RandomForest--CountVectorizer-bigrams,0.551414217,0.553107395,0.557077225,0.555456944
Gaussian Naive-Bayes--CountVectorizer-bigrams,0.527711977,0.620636234,0.556639269,0.531865331
LogisticRegression--TfidfVectorizer-unigrams,0.557615137,0.564886435,0.560402147,0.558287132
RandomForest--TfidfVectorizer-unigrams,0.57850536,0.548381472,0.561226044,0.576234016
Gaussian Naive-Bayes--TfidfVectorizer-unigrams,0.607587854,0.20623491,0.305039854,0.536571135
LogisticRegression--TfidfVectorizer-bigrams,0.557782815,0.566308236,0.561372335,0.55899915
RandomForest--TfidfVectorizer-bigrams,0.564592916,0.588951981,0.578769252,0.57268622
Gaussian Naive-Bayes--TfidfVectorizer-bigrams,0.529161423,0.629576142,0.572159892,0.535403067